…
### Population Density and Its Drivers in Mainland China

``` r
popd_nb = spdep::read.gal(system.file("case/popd_nb.gal",package = "spEDM"))
## Warning in spdep::read.gal(system.file("case/popd_nb.gal", package = "spEDM")): neighbour object
## has 4 sub-graphs
popd = readr::read_csv(system.file("case/popd.csv",package = "spEDM"))
popd_sf = sf::st_as_sf(popd, coords = c("lon","lat"), crs = 4326)
popd_sf
## Simple feature collection with 2806 features and 5 fields
## Geometry type: POINT
## Dimension:     XY
## Bounding box:  xmin: 74.9055 ymin: 18.2698 xmax: 134.269 ymax: 52.9346
## Geodetic CRS:  WGS 84
## # A tibble: 2,806 × 6
##     popd  elev   tem   pre slope          geometry
##  * <dbl> <dbl> <dbl> <dbl> <dbl>       <POINT [°]>
##  1  780.     8  17.4 1528. 0.452 (116.912 30.4879)
##  2  395.    48  17.2 1487. 0.842 (116.755 30.5877)
##  3  261.    49  16.0 1456. 3.56  (116.541 30.7548)
##  4  258.    23  17.4 1555. 0.932  (116.241 30.104)
##  5  211.   101  16.3 1494. 3.34   (116.173 30.495)
##  6  386.    10  16.6 1382. 1.65  (116.935 30.9839)
##  7  350.    23  17.5 1569. 0.346 (116.677 30.2412)
##  8  470.    22  17.1 1493. 1.88  (117.066 30.6514)
##  9 1226.    11  17.4 1526. 0.208 (117.171 30.5558)
## 10  137.   598  13.9 1458. 5.92  (116.208 30.8983)
## # ℹ 2,796 more rows
```
…
``` r
res_npp = infoxtr::surd(npp,1, 2:5,
                        lag = 2, bin = 10, threads = 6)
tibble::as_tibble(res_npp)
## # A tibble: 22 × 3
##    vars        types    values
##    <chr>       <chr>     <dbl>
##  1 V1          U     0.0777   
##  2 V2          U     0.000234 
##  3 V3          U     0.0000114
##  4 V4          U     0.0164   
##  5 V1_V2       R     0.0948   
##  6 V1_V3       R     0.000828 
##  7 V1_V4       R     0.00514  
##  8 V1_V2_V3    R     0.0137   
##  9 V1_V2_V4    R     0.0149   
## 10 V1_V2_V3_V4 R     0.565    
## # ℹ 12 more rows
```
…
